20 40
1 14 75 46 53 22 5 68 68 93 38 52 83 4 6 53 67 1 38 7
1 6  1 14  1 17  2 6  2 14  2 19  3 15  3 17  4 5  4 6  4 8  4 12  5 6  5 7  5 20  6 9  6 19  7 11  7 15  8 11  8 20  9 14  9 15  9 17  10 11  10 16  10 18  10 20  11 17  11 19  12 17  12 18  12 19  13 16  13 17  13 18  15 16  15 20  16 19  18 20
